Group08 - 05_analysis_1
…
# remove h in timepoints and convert to numeric
data$time <- as.numeric(sub("h", "", data$timepoint))

Small test - applying linear model to one gene (e.g. (AT)SRC2)

Get the data for (AT)SRC2 only

small_test_ATSRC2 <- data |>  
  filter(gene == "(AT)SRC2")
small_test_ATSRC2

# A tibble: 60 × 10
   GSM       title condition tissue timepoint replicate gene  expression average
   <chr>     <chr> <fct>     <fct>  <fct>     <fct>     <fct>      <dbl>   <dbl>
 1 GSM131223 AtGe… control   Shoots 0h        Rep1      (AT)…       9.39    9.47
 2 GSM131224 AtGe… control   Shoots 0h        Rep2      (AT)…       9.55    9.47
 3 GSM131225 AtGe… control   Roots  0h        Rep1      (AT)…       7.77    8.10
 4 GSM131226 AtGe… control   Roots  0h        Rep2      (AT)…       8.43    8.10
 5 GSM131227 AtGe… control   Shoots 0.25h     Rep1      (AT)…      10.2    10.3 
 6 GSM131228 AtGe… control   Shoots 0.25h     Rep2      (AT)…      10.3    10.3 
 7 GSM131229 AtGe… control   Roots  0.25h     Rep1      (AT)…       8.98    8.88
 8 GSM131230 AtGe… control   Roots  0.25h     Rep2      (AT)…       8.78    8.88
 9 GSM131231 AtGe… control   Shoots 0.5h      Rep1      (AT)…      10.1     9.99
10 GSM131232 AtGe… control   Shoots 0.5h      Rep2      (AT)…       9.89    9.99
# ℹ 50 more rows
# ℹ 1 more variable: time <dbl>
…
Applying polynomial model to all genes via nested application of lm()

Create nested dataframe

nested_data <- data |>
  group_by(gene) |>
  nest() |> 
  ungroup()

nested_data

# A tibble: 10,555 × 2
   gene    data             
   <fct>   <list>           
 1 ORF25   <tibble [60 × 9]>
 2 ORF149  <tibble [60 × 9]>
 3 ORF275  <tibble [60 × 9]>
 4 ORF122C <tibble [60 × 9]>
 5 ORF120  <tibble [60 × 9]>
 6 ORF107D <tibble [60 × 9]>
 7 ORF100A <tibble [60 × 9]>
 8 ORF170  <tibble [60 × 9]>
 9 CCB382  <tibble [60 × 9]>
10 ORF121B <tibble [60 × 9]>
# ℹ 10,545 more rows

# check
nested_data |>
  filter(gene == "(AT)SRC2") |> 
  pull(data)

[[1]]
# A tibble: 60 × 9
   GSM       title condition tissue timepoint replicate expression average  time
   <chr>     <chr> <fct>     <fct>  <fct>     <fct>          <dbl>   <dbl> <dbl>
 1 GSM131223 AtGe… control   Shoots 0h        Rep1            9.39    9.47  0   
 2 GSM131224 AtGe… control   Shoots 0h        Rep2            9.55    9.47  0   
 3 GSM131225 AtGe… control   Roots  0h        Rep1            7.77    8.10  0   
 4 GSM131226 AtGe… control   Roots  0h        Rep2            8.43    8.10  0   
 5 GSM131227 AtGe… control   Shoots 0.25h     Rep1           10.2    10.3   0.25
 6 GSM131228 AtGe… control   Shoots 0.25h     Rep2           10.3    10.3   0.25
 7 GSM131229 AtGe… control   Roots  0.25h     Rep1            8.98    8.88  0.25
 8 GSM131230 AtGe… control   Roots  0.25h     Rep2            8.78    8.88  0.25
 9 GSM131231 AtGe… control   Shoots 0.5h      Rep1           10.1     9.99  0.5 
10 GSM131232 AtGe… control   Shoots 0.5h      Rep2            9.89    9.99  0.5 
# ℹ 50 more rows

Apply model_object to nested data

nested_data <- nested_data |> 
  group_by(gene) |> 
  mutate(model_object = map(.x = data,
                            .f = ~lm(formula = expression ~ condition * poly(time, 3) * tissue, data = .x)))
nested_data

# A tibble: 10,555 × 3
# Groups:   gene [10,555]
   gene    data              model_object
   <fct>   <list>            <list>      
 1 ORF25   <tibble [60 × 9]> <lm>        
 2 ORF149  <tibble [60 × 9]> <lm>        
 3 ORF275  <tibble [60 × 9]> <lm>        
 4 ORF122C <tibble [60 × 9]> <lm>        
 5 ORF120  <tibble [60 × 9]> <lm>        
 6 ORF107D <tibble [60 × 9]> <lm>        
 7 ORF100A <tibble [60 × 9]> <lm>        
 8 ORF170  <tibble [60 × 9]> <lm>        
 9 CCB382  <tibble [60 × 9]> <lm>        
10 ORF121B <tibble [60 × 9]> <lm>        
# ℹ 10,545 more rows
…
# tidy using broom
nested_data <- nested_data |> 
  mutate(model_object_tidy = map(.x = model_object,
                                 .f = ~tidy(x = .x,
                                            conf.int = TRUE,
                                            conf.level = 0.95)))

nested_data

# A tibble: 10,555 × 4
# Groups:   gene [10,555]
   gene    data              model_object model_object_tidy
   <fct>   <list>            <list>       <list>           
 1 ORF25   <tibble [60 × 9]> <lm>         <tibble [16 × 7]>
 2 ORF149  <tibble [60 × 9]> <lm>         <tibble [16 × 7]>
 3 ORF275  <tibble [60 × 9]> <lm>         <tibble [16 × 7]>
 4 ORF122C <tibble [60 × 9]> <lm>         <tibble [16 × 7]>
 5 ORF120  <tibble [60 × 9]> <lm>         <tibble [16 × 7]>
 6 ORF107D <tibble [60 × 9]> <lm>         <tibble [16 × 7]>
 7 ORF100A <tibble [60 × 9]> <lm>         <tibble [16 × 7]>
 8 ORF170  <tibble [60 × 9]> <lm>         <tibble [16 × 7]>
 9 CCB382  <tibble [60 × 9]> <lm>         <tibble [16 × 7]>
10 ORF121B <tibble [60 × 9]> <lm>         <tibble [16 × 7]>
# ℹ 10,545 more rows
…
# unpack the nested models
data_estimates <- nested_data |>
  unnest(model_object_tidy) |> 
  filter(term != "(Intercept)") |> 
  dplyr::select(gene, term, estimate, p.value, conf.low, conf.high) |> 
  ungroup()
data_estimates

# A tibble: 158,325 × 6
   gene  term                         estimate    p.value conf.low conf.high
   <fct> <chr>                           <dbl>      <dbl>    <dbl>     <dbl>
 1 ORF25 conditioncold                   0.378 0.00438       0.125     0.632
 2 ORF25 poly(time, 3)1                  0.530 0.413        -0.763     1.82 
 3 ORF25 poly(time, 3)2                 -0.263 0.680        -1.54      1.01 
 4 ORF25 poly(time, 3)3                 -0.170 0.780        -1.39      1.05 
 5 ORF25 tissueShoots                    0.633 0.00000105    0.408     0.858
 6 ORF25 conditioncold:poly(time, 3)1    0.288 0.766        -1.65      2.23 
 7 ORF25 conditioncold:poly(time, 3)2    0.156 0.873        -1.81      2.12 
 8 ORF25 conditioncold:poly(time, 3)3    1.00  0.317        -0.993     2.99 
 9 ORF25 conditioncold:tissueShoots     -0.564 0.00281      -0.923    -0.205
10 ORF25 poly(time, 3)1:tissueShoots     0.386 0.672        -1.44      2.21 
# ℹ 158,315 more rows

# add q value
data_estimates <- data_estimates |>
  mutate(q.value = p.adjust(p.value),
         is_significant = case_when(q.value <= 0.05 ~ "yes",
                                    q.value > 0.05 ~ "no"))
data_estimates

# A tibble: 158,325 × 8
   gene  term         estimate p.value conf.low conf.high q.value is_significant
   <fct> <chr>           <dbl>   <dbl>    <dbl>     <dbl>   <dbl> <chr>         
 1 ORF25 conditionco…    0.378 4.38e-3    0.125     0.632   1     no            
 2 ORF25 poly(time, …    0.530 4.13e-1   -0.763     1.82    1     no            
 3 ORF25 poly(time, …   -0.263 6.80e-1   -1.54      1.01    1     no            
 4 ORF25 poly(time, …   -0.170 7.80e-1   -1.39      1.05    1     no            
 5 ORF25 tissueShoots    0.633 1.05e-6    0.408     0.858   0.155 no            
 6 ORF25 conditionco…    0.288 7.66e-1   -1.65      2.23    1     no            
 7 ORF25 conditionco…    0.156 8.73e-1   -1.81      2.12    1     no            
 8 ORF25 conditionco…    1.00  3.17e-1   -0.993     2.99    1     no            
 9 ORF25 conditionco…   -0.564 2.81e-3   -0.923    -0.205   1     no            
10 ORF25 poly(time, …    0.386 6.72e-1   -1.44      2.21    1     no            
# ℹ 158,315 more rows

Select statistically significant genes

significant_data_estimates <- data_estimates |>
  filter(is_significant == "yes") |> 
  dplyr::select(gene, term, estimate, p.value, q.value)
significant_data_estimates

# A tibble: 9,980 × 5
   gene    term         estimate  p.value  q.value
   <fct>   <chr>           <dbl>    <dbl>    <dbl>
 1 ORF107E tissueShoots    -1.38 8.08e- 8 1.20e- 2
 2 PSAC    tissueShoots     3.62 1.64e-21 2.55e-16
 3 NDHE    tissueShoots     3.39 2.52e-21 3.91e-16
 4 NDHG    tissueShoots     3.54 2.64e-28 4.14e-23
 5 NDHI    tissueShoots     3.24 4.21e-31 6.61e-26
 6 NDHA    tissueShoots     3.85 2.89e-30 4.54e-25
 7 NDHH    tissueShoots     3.94 3.33e-25 5.20e-20
 8 RPS15   tissueShoots     2.35 4.30e-20 6.66e-15
 9 RPS12   tissueShoots     2.72 1.81e-17 2.79e-12
10 RPS12.1 tissueShoots     2.44 7.48e-21 1.16e-15
# ℹ 9,970 more rows
…
ggsave("../results/05_key_plot_1.png", model_pred_experssion_ATGPT2, width = 8, height = 6, dpi = 300)

So, it is not weird that ATGPT2 has both a large positive and negative estimate for the two polynomial times - the expression pattern is essentially opposite in shoots under cold and control conditions. There is very little difference in the gene expression over time in roots between conditions, however.

Look for all genes involved in cold and/or stress according to gene annotations

key_words <- c("cold", "stress")

# use OR logic
cold_or_stress <- expr_annotated_gene_info |>
  filter(str_detect(genename, str_c(key_words, collapse = "|")))
cold_or_stress

# A tibble: 294 × 2
   genename                                                                gene 
   <chr>                                                                   <chr>
 1 bZIP17 appears to regulate transcription as part of a salt and osmotic… BZIP…
 2 Encodes a protein with cysteine proteinase inhibitor activity. Overexp… ATCY…
 3 A novel protein with a RING finger motif near the amino terminus. Nega… ESD6 
 4 Encodes a protein disulfide isomerase-like (PDIL) protein, a member of… ATPD…
 5 Encodes a medium to long-chain acyl-CoA oxidase. Catalyzes the first s… ACX1 
 6 Member of AtCBL (Calcineurin B-like Calcium Sensor Proteins) family. P… ATCB…
 7 The VERNALIZATION2 (VRN2) gene mediates vernalization and encodes a nu… VRN2 
 8 Encodes a cytosolic isoform of cytosolic O-acetylserine(thiol)lyase, a… ATCY…
 9 Homologous to pea OEP16 and barley pPORA (OEP16), a member of Arabidop… ATOE…
10 Encodes a beta-amylase targeted to the chloroplast. Transgenic BMY8 RN… AtBA…
# ℹ 284 more rows

There are 294 genes that are annotated with words “cold” or “stress”.

# use AND logic
cold_and_stress <- expr_annotated_gene_info |>
  filter(map_lgl(genename, ~ all(str_detect(.x, key_words)))) 
cold_and_stress

# A tibble: 32 × 2
   genename                                                                gene 
   <chr>                                                                   <chr>
 1 Encodes a protein with cysteine proteinase inhibitor activity. Overexp… ATCY…
 2 A novel protein with a RING finger motif near the amino terminus. Nega… ESD6 
 3 Member of AtCBL (Calcineurin B-like Calcium Sensor Proteins) family. P… ATCB…
 4 Encodes a WD-40 protein involved in histone deacetylation in response … HOS15
 5 Encodes a bifunctional protein that has 3'(2'),5'-bisphosphate nucleot… ALX8 
 6 A member of Arabidopsis BAG (Bcl-2-associated athanogene) proteins, pl… ATBA…
 7 Encodes one of five HVA22 homologs in Arabidopsis.  HVA22 is an ABA- a… ATHV…
 8 Encodes a protein with 40% similarity to calmodulin. Binds Ca(2+) and,… AtCM…
 9 Similar in sequence to DEAD-box RNA helicases. Binds RNA. Involved in … ATRH…
10 Encodes a mitogen-activated kinase whose mRNA levels increase in respo… ATMA…
# ℹ 22 more rows
…
